<svg width="31" height="31" viewBox="0 0 31 31" fill="none" xmlns="http://www.w3.org/2000/svg">
<path d="M15.4132 0.686462C6.91025 0.686462 0 7.4557 0 15.7711C0 24.0928 6.91025 30.8556 15.4132 30.8556C23.9097 30.8556 30.8264 24.0928 30.8264 15.7711C30.8264 7.4557 23.9097 0.686462 15.4132 0.686462ZM21.4115 16.5317L12.1571 21.4216C11.5663 21.7294 10.8534 21.3146 10.8534 20.6611V10.8874C10.8534 10.2338 11.5663 9.81267 12.1571 10.1269L21.4115 15.0105C22.028 15.3374 22.028 16.2048 21.4115 16.5317Z" fill="white" fill-opacity="0.79"/>
</svg>
